…
``` r
data_diff[grepl('0wk', data_diff$var) & is.na(data_diff$value),]
```

    ## # A tibble: 45 x 4
    ##    group   var                 value A    
    ##    <chr>   <chr>               <dbl> <chr>
    ##  1 Test    var_002_A2_0wk_diff    NA A2   
    ##  2 Test    var_002_A2_0wk_diff    NA A2   
    ##  3 Placebo var_002_A2_0wk_diff    NA A2   
    ##  4 Test    var_002_A2_0wk_diff    NA A2   
    ##  5 Test    var_002_A2_0wk_diff    NA A2   
    ##  6 Placebo var_002_A2_0wk_diff    NA A2   
    ##  7 Placebo var_002_A2_0wk_diff    NA A2   
    ##  8 Placebo var_002_A2_0wk_diff    NA A2   
    ##  9 Placebo var_002_A2_0wk_diff    NA A2   
    ## 10 Placebo var_002_A2_0wk_diff    NA A2   
    ## # ... with 35 more rows
…
``` r
data_diff[grepl('8wk', data_diff$var) & is.na(data_diff$value),]
```

    ## # A tibble: 35 x 4
    ##    group   var                 value A    
    ##    <chr>   <chr>               <dbl> <chr>
    ##  1 Placebo var_A1_8wk_diff        NA A1   
    ##  2 Placebo var_A1_8wk_diff        NA A1   
    ##  3 Test    var_A1_8wk_diff        NA A1   
    ##  4 Placebo var_A1_8wk_diff        NA A1   
    ##  5 Placebo var_002_A2_8wk_diff    NA A2   
    ##  6 Placebo var_002_A2_8wk_diff    NA A2   
    ##  7 Test    var_002_A2_8wk_diff    NA A2   
    ##  8 Placebo var_002_A2_8wk_diff    NA A2   
    ##  9 Placebo var_002_A2_8wk_diff    NA A2   
    ## 10 Placebo var_002_A2_8wk_diff    NA A2   
    ## # ... with 25 more rows
…
